Machine Learning for Risk Prediction using Oblique Random Survival Forests
…
.footnote[
<sup>1</sup>Thanks to [Garrick Aden-Buie's xaringanExtra](https://github.com/gadenbuie/xaringanExtra) for this awesome feature.
]

---

Step 2: Inspect the `pbc_orsf` data

```r
as_tibble(pbc_orsf)
```

```
## # A tibble: 276 x 20
##       id  time status trt     age sex   ascites hepato spiders edema  bili  chol
##    <int> <int>  <dbl> <fct> <dbl> <fct> <fct>   <fct>  <fct>   <fct> <dbl> <int>
##  1     1   400      1 d_pe~  58.8 f     1       1      1       1      14.5   261
##  2     2  4500      0 d_pe~  56.4 f     0       1      1       0       1.1   302
##  3     3  1012      1 d_pe~  70.1 m     0       0      0       0.5     1.4   176
##  4     4  1925      1 d_pe~  54.7 f     0       1      1       0.5     1.8   244
##  5     5  1504      0 plac~  38.1 f     0       1      1       0       3.4   279
##  6     7  1832      0 plac~  55.5 f     0       1      0       0       1     322
##  7     8  2466      1 plac~  53.1 f     0       0      0       0       0.3   280
##  8     9  2400      1 d_pe~  42.5 f     0       0      1       0       3.2   562
##  9    10    51      1 plac~  70.6 f     1       0      1       1      12.6   200
## 10    11  3762      1 plac~  53.7 f     0       1      1       0       1.4   259
## # i 266 more rows
## # i 8 more variables: albumin <dbl>, copper <int>, alk.phos <dbl>, ast <dbl>,
## #   trig <int>, platelet <int>, protime <dbl>, stage <ord>
```
…
